fir.vcd
$date
   Sun Oct 22 11:48:31 2023
$end
$version
  2023.1
$end
$timescale
  1ps
$end
$scope module fir_tb $end
$var wire 1 ! awready $end
$var wire 1 " wready $end
$var reg 1 # awvalid $end
$var reg 12 $ awaddr [11:0] $end
$var reg 1 % wvalid $end
$var reg 32 & wdata [31:0] $end
$var wire 1 ' arready $end
$var reg 1 ( rready $end
$var reg 1 ) arvalid $end
$var reg 12 * araddr [11:0] $end
$var wire 1 + rvalid $end
$var wire 32 , rdata [31:0] $end
$var reg 1 - ss_tvalid $end
$var reg 32 . ss_tdata [31:0] $end
$var reg 1 / ss_tlast $end
$var wire 1 0 ss_tready $end
$var reg 1 1 sm_tready $end
$var wire 1 2 sm_tvalid $end
$var wire 32 3 sm_tdata [31:0] $end
$var wire 1 4 sm_tlast $end
$var reg 1 5 axis_clk $end
$var reg 1 6 axis_rst_n $end
$var wire 4 7 tap_WE [3:0] $end
$var wire 1 8 tap_EN $end
$var wire 32 9 tap_Di [31:0] $end
$var wire 12 : tap_A [11:0] $end
$var wire 32 ; tap_Do [31:0] $end
$var wire 4 < data_WE [3:0] $end
$var wire 1 = data_EN $end
$var wire 32 > data_Di [31:0] $end
$var wire 12 ? data_A [11:0] $end
$var wire 32 @ data_Do [31:0] $end
$var reg 32 A data_length [31:0] $end
$var integer 32 B Din [31:0] $end
$var integer 32 C golden [31:0] $end
$var integer 32 D input_data [31:0] $end
$var integer 32 E golden_data [31:0] $end
$var integer 32 F m [31:0] $end
$var integer 32 G i [31:0] $end
$var integer 32 H k [31:0] $end
$var reg 1 I error $end
$var reg 1 J error_coef $end
$var integer 32 K timeout [31:0] $end
$scope module fir_DUT $end
$var wire 1 ! awready $end
$var wire 1 " wready $end
$var wire 1 L awvalid $end
$var wire 12 M awaddr [11:0] $end
$var wire 1 N wvalid $end
$var wire 32 O wdata [31:0] $end
$var wire 1 ' arready $end
$var wire 1 P rready $end
$var wire 1 Q arvalid $end
$var wire 12 R araddr [11:0] $end
$var reg 1 S rvalid $end
$var wire 32 , rdata [31:0] $end
$var wire 1 T ss_tvalid $end
$var wire 32 U ss_tdata [31:0] $end
$var wire 1 V ss_tlast $end
$var wire 1 0 ss_tready $end
$var wire 1 W sm_tready $end
$var reg 1 X sm_tvalid $end
$var wire 32 3 sm_tdata [31:0] $end
$var wire 1 4 sm_tlast $end
$var wire 4 7 tap_WE [3:0] $end
$var wire 1 8 tap_EN $end
$var wire 32 9 tap_Di [31:0] $end
$var reg 12 Y tap_A [11:0] $end
$var wire 32 ; tap_Do [31:0] $end
$var wire 4 < data_WE [3:0] $end
$var wire 1 = data_EN $end
$var wire 32 > data_Di [31:0] $end
$var wire 12 ? data_A [11:0] $end
$var wire 32 @ data_Do [31:0] $end
$var wire 1 Z axis_clk $end
$var wire 1 [ axis_rst_n $end
$var reg 4 \ \genblk1.cs  [3:0] $end
$var reg 4 ] \genblk1.ns  [3:0] $end
$var reg 32 ^ \genblk1.y  [31:0] $end
$var reg 3 _ \genblk1.ap  [2:0] $end
$var reg 1 ` \genblk1.last_out  $end
$var reg 12 a \genblk1.awaddr_reg  [11:0] $end
$var reg 12 b \genblk1.araddr_reg  [11:0] $end
$var reg 1 c \genblk1.raddr_valid  $end
$var wire 12 d \genblk1.addr_tap  [11:0] $end
$var reg 12 e \genblk1.tap_rdptr  [11:0] $end
$var reg 12 f \genblk1.data_wrptr  [11:0] $end
$var reg 12 g \genblk1.data_rdptr  [11:0] $end
$var wire 12 h \genblk1.c_ptr  [11:0] $end
$var reg 12 i \genblk1.nxt_ptr  [11:0] $end
$upscope $end
$scope module tap_RAM $end
$var wire 1 j CLK $end
$var wire 4 7 WE [3:0] $end
$var wire 1 8 EN $end
$var wire 32 9 Di [31:0] $end
$var wire 32 ; Do [31:0] $end
$var wire 12 : A [11:0] $end
$var reg 12 k r_A [11:0] $end
$upscope $end
$scope module data_RAM $end
$var wire 1 l CLK $end
$var wire 4 < WE [3:0] $end
$var wire 1 = EN $end
$var wire 32 > Di [31:0] $end
$var wire 32 @ Do [31:0] $end
$var wire 12 ? A [11:0] $end
$var reg 12 m r_A [11:0] $end
$upscope $end
$scope task config_write $end
$var reg 12 n addr [11:0] $end
$var reg 32 o data [31:0] $end
$upscope $end
$scope task config_read_check $end
$var reg 12 p addr [11:0] $end
$var reg 32 q exp_data [31:0] $end
$var reg 32 r mask [31:0] $end
$upscope $end
$scope task ss $end
$var reg 32 s in1 [31:0] $end
$upscope $end
$scope task sm $end
$var reg 32 t in2 [31:0] $end
$var reg 32 u pcnt [31:0] $end
$upscope $end
$upscope $end
$enddefinitions $end
#0
$dumpvars
0!
0"
0#
bx $
0%
bx &
1'
x(
x)
bx *
x+
b100 ,
1-
b1 .
0/
00
11
x2
b0 3
z4
05
06
b0 7
18
bx 9
b111111111111 :
bx ;
b0 <
1=
b0 >
b0 ?
bx @
b1001011000 A
b11111111111111111011000111100000 B
b11111111111111111011000111100001 C
b1 D
b1 E
b1001011000 F
b0 G
bx H
0I
0J
b10011100010000 K
0L
bx M
0N
bx O
xP
xQ
bx R
xS
1T
b1 U
0V
1W
xX
b111111111111 Y
0Z
0[
b0 \
b1 ]
b0 ^
b100 _
0`
b0 a
b0 b
0c
b0 d
b0 e
b0 f
b0 g
b0 h
b100 i
0j
bx k
0l
bx m
b10000 n
b1001011000 o
bx p
bx q
bx r
b1 s
bx t
bx u
$end
#5000
1#
b10000 $
1%
b1001011000 &
0+
02
15
b1001011000 9
b10011100001111 K
1L
b10000 M
1N
b1001011000 O
0S
0X
1Z
1j
b111111111111 k
1l
b0 m
#10000
05
0Z
0j
0l
#15000
1!
15
16
b1111 <
b10011100001110 K
1Z
1[
b1 \
b10 ]
bx b
b100 e
bz g
1j
1l
#20000
05
0Z
0j
0l
#25000
0!
1"
bx ,
15
b100 ?
b0 @
b10011100001101 K
1Z
b10 \
b1 ]
b10000 a
b10000 d
b1000 e
b100 f
b100 h
b1000 i
1j
1l
#30000
05
0Z
0j
0l
#35000
1!
0"
0#
0%
15
b1000 ?
b0 H
b10011100001100 K
0L
0N
1Z
b1 \
bx d
b1100 e
b1000 f
b1000 h
b1100 i
1j
1l
b100 m
b100000 n
b0 o
#40000
05
0Z
0j
0l
#45000
1#
b100000 $
1%
b0 &
15
b0 9
b1100 ?
b10011100001011 K
1L
b100000 M
1N
b0 O
1Z
b10 ]
b10000 d
b10000 e
b1100 f
b1100 h
b10000 i
1j
1l
b1000 m
#50000
05
0Z
0j
0l
#55000
0!
1"
15
b1111 7
b0 :
b10000 ?
b10011100001010 K
b0 Y
1Z
b10 \
b1 ]
b100000 a
b100000 d
b10100 e
b10000 f
b10000 h
b10100 i
1j
1l
b1100 m
#60000
05
0Z
0j
0l
#65000
1!
0"
0#
0%
b0 ,
15
b0 7
b111111111111 :
b0 ;
b10100 ?
b1 H
b10011100001001 K
0L
0N
b111111111111 Y
1Z
b1 \
bx d
b11000 e
b10100 f
b10100 h
b11000 i
1j
b0 k
1l
b10000 m
b100100 n
b11111111111111111111111111110110 o
#70000
05
0Z
0j
0l
#75000
1#
b100100 $
1%
b11111111111111111111111111110110 &
bx ,
15
b11111111111111111111111111110110 9
b0 :
bx ;
b11000 ?
b10011100001000 K
1L
b100100 M
1N
b11111111111111111111111111110110 O
b0 Y
1Z
b10 ]
b100000 d
b11100 e
b11000 f
b11000 h
b11100 i
1j
b111111111111 k
1l
b10100 m
#80000
05
0Z
0j
0l
#85000
0!
1"
b0 ,
15
b1111 7
b100 :
b0 ;
b11100 ?
b10011100000111 K
b100 Y
1Z
b10 \
b1 ]
b100100 a
b100100 d
b100000 e
b11100 f
b11100 h
b100000 i
1j
b0 k
1l
b11000 m
#90000
05
0Z
0j
0l
#95000
1!
0"
0#
0%
b11111111111111111111111111110110 ,
15
b0 7
b111111111111 :
b11111111111111111111111111110110 ;
b100000 ?
b10 H
b10011100000110 K
0L
0N
b111111111111 Y
1Z
b1 \
bx d
b100100 e
b100000 f
b100000 h
b100100 i
1j
b100 k
1l
b11100 m
b101000 n
b11111111111111111111111111110111 o
#100000
05
0Z
0j
0l
#105000
1#
b101000 $
1%
b11111111111111111111111111110111 &
bx ,
15
b11111111111111111111111111110111 9
b100 :
bx ;
b100100 ?
b10011100000101 K
1L
b101000 M
1N
b11111111111111111111111111110111 O
b100 Y
1Z
b10 ]
b100100 d
b101000 e
b100100 f
b100100 h
b101000 i
1j
b111111111111 k
1l
b100000 m
#110000
05
0Z
0j
0l
#115000
0!
1"
b11111111111111111111111111110110 ,
15
b1111 7
b1000 :
b11111111111111111111111111110110 ;
b101000 ?
b10011100000100 K
b1000 Y
1Z
b10 \
b1 ]
b101000 a
b101000 d
b101100 e
b101000 f
b101000 h
b0 i
1j
b100 k
1l
b100100 m
#120000
05
0Z
0j
0l
#125000
1!
0"
0#
0%
b11111111111111111111111111110111 ,
15
b0 7
b111111111111 :
b11111111111111111111111111110111 ;
b0 ?
b11 H
b10011100000011 K
0L
0N
b111111111111 Y
1Z
b1 \
bx d
b110000 e
b0 f
b0 h
b100 i
1j
b1000 k
1l
b101000 m
b101100 n
b10111 o
#130000
05
0Z
0j
0l
#135000
1#
b101100 $
1%
b10111 &
bx ,
15
b10111 9
b1000 :
bx ;
b100 ?
b10011100000010 K
1L
b101100 M
1N
b10111 O
b1000 Y
1Z
b10 ]
b101000 d
b110100 e
b100 f
b100 h
b1000 i
1j
b111111111111 k
1l
b0 m
#140000
05
0Z
0j
0l
#145000
0!
1"
b11111111111111111111111111110111 ,
15
b1111 7
b1100 :
b11111111111111111111111111110111 ;
b1000 ?
b10011100000001 K
b1100 Y
1Z
b10 \
b1 ]
b101100 a
b101100 d
b111000 e
b1000 f
b1000 h
b1100 i
1j
b1000 k
1l
b100 m
#150000
05
0Z
0j
0l
#155000
1!
0"
0#
0%
b10111 ,
15
b0 7
b111111111111 :
b10111 ;
b1100 ?
b100 H
b10011100000000 K
0L
0N
b111111111111 Y
1Z
b1 \
bx d
b111100 e
b1100 f
b1100 h
b10000 i
1j
b1100 k
1l
b1000 m
b110000 n
b111000 o
#160000
05
0Z
0j
0l
#165000
1#
b110000 $
1%
b111000 &
bx ,
15
b111000 9
b1100 :
bx ;
b10000 ?
b10011011111111 K
1L
b110000 M
1N
b111000 O
b1100 Y
1Z
b10 ]
b101100 d
b1000000 e
b10000 f
b10000 h
b10100 i
1j
b111111111111 k
1l
b1100 m
#170000
05
0Z
0j
0l
#175000
0!
1"
b10111 ,
15
b1111 7
b10000 :
b10111 ;
b10100 ?
b10011011111110 K
b10000 Y
1Z
b10 \
b1 ]
b110000 a
b110000 d
b1000100 e
b10100 f
b10100 h
b11000 i
1j
b1100 k
1l
b10000 m
#180000
05
0Z
0j
0l
#185000
1!
0"
0#
0%
b111000 ,
15
b0 7
b111111111111 :
b111000 ;
b11000 ?
b101 H
b10011011111101 K
0L
0N
b111111111111 Y
1Z
b1 \
bx d
b1001000 e
b11000 f
b11000 h
b11100 i
1j
b10000 k
1l
b10100 m
b110100 n
b111111 o
#190000
05
0Z
0j
0l
#195000
1#
b110100 $
1%
b111111 &
bx ,
15
b111111 9
b10000 :
bx ;
b11100 ?
b10011011111100 K
1L
b110100 M
1N
b111111 O
b10000 Y
1Z
b10 ]
b110000 d
b1001100 e
b11100 f
b11100 h
b100000 i
1j
b111111111111 k
1l
b11000 m
#200000
05
0Z
0j
0l
#205000
0!
1"
b111000 ,
15
b1111 7
b10100 :
b111000 ;
b100000 ?
b10011011111011 K
b10100 Y
1Z
b10 \
b1 ]
b110100 a
b110100 d
b1010000 e
b100000 f
b100000 h
b100100 i
1j
b10000 k
1l
b11100 m
#210000
05
0Z
0j
0l
#215000
1!
0"
0#
0%
b111111 ,
15
b0 7
b111111111111 :
b111111 ;
b100100 ?
b110 H
b10011011111010 K
0L
0N
b111111111111 Y
1Z
b1 \
bx d
b1010100 e
b100100 f
b100100 h
b101000 i
1j
b10100 k
1l
b100000 m
b111000 n
b111000 o
#220000
05
0Z
0j
0l
#225000
1#
b111000 $
1%
b111000 &
bx ,
15
b111000 9
b10100 :
bx ;
b101000 ?
b10011011111001 K
1L
b111000 M
1N
b111000 O
b10100 Y
1Z
b10 ]
b110100 d
b1011000 e
b101000 f
b101000 h
b0 i
1j
b111111111111 k
1l
b100100 m
#230000
05
0Z
0j
0l
#235000
0!
1"
b111111 ,
15
b1111 7
b11000 :
b111111 ;
b0 ?
b10011011111000 K
b11000 Y
1Z
b10 \
b1 ]
b111000 a
b111000 d
b1011100 e
b0 f
b0 h
b100 i
1j
b10100 k
1l
b101000 m
#240000
05
0Z
0j
0l
#245000
1!
0"
0#
0%
b111000 ,
15
b0 7
b111111111111 :
b111000 ;
b100 ?
b111 H
b10011011110111 K
0L
0N
b111111111111 Y
1Z
b1 \
bx d
b1100000 e
b100 f
b100 h
b1000 i
1j
b11000 k
1l
b0 m
b111100 n
b10111 o
#250000
05
0Z
0j
0l
#255000
1#
b111100 $
1%
b10111 &
bx ,
15
b10111 9
b11000 :
bx ;
b1000 ?
b10011011110110 K
1L
b111100 M
1N
b10111 O
b11000 Y
1Z
b10 ]
b111000 d
b1100100 e
b1000 f
b1000 h
b1100 i
1j
b111111111111 k
1l
b100 m
#260000
05
0Z
0j
0l
#265000
0!
1"
b111000 ,
15
b1111 7
b11100 :
b111000 ;
b1100 ?
b10011011110101 K
b11100 Y
1Z
b10 \
b1 ]
b111100 a
b111100 d
b1101000 e
b1100 f
b1100 h
b10000 i
1j
b11000 k
1l
b1000 m
#270000
05
0Z
0j
0l
#275000
1!
0"
0#
0%
b10111 ,
15
b0 7
b111111111111 :
b10111 ;
b10000 ?
b1000 H
b10011011110100 K
0L
0N
b111111111111 Y
1Z
b1 \
bx d
b1101100 e
b10000 f
b10000 h
b10100 i
1j
b11100 k
1l
b1100 m
b1000000 n
b11111111111111111111111111110111 o
#280000
05
0Z
0j
0l
#285000
1#
b1000000 $
1%
b11111111111111111111111111110111 &
bx ,
15
b11111111111111111111111111110111 9
b11100 :
bx ;
b10100 ?
b10011011110011 K
1L
b1000000 M
1N
b11111111111111111111111111110111 O
b11100 Y
1Z
b10 ]
b111100 d
b1110000 e
b10100 f
b10100 h
b11000 i
1j
b111111111111 k
1l
b10000 m
#290000
05
0Z
0j
0l
#295000
0!
1"
b10111 ,
15
b1111 7
b100000 :
b10111 ;
b11000 ?
b10011011110010 K
b100000 Y
1Z
b10 \
b1 ]
b1000000 a
b1000000 d
b1110100 e
b11000 f
b11000 h
b11100 i
1j
b11100 k
1l
b10100 m
#300000
05
0Z
0j
0l
#305000
1!
0"
0#
0%
b11111111111111111111111111110111 ,
15
b0 7
b111111111111 :
b11111111111111111111111111110111 ;
b11100 ?
b1001 H
b10011011110001 K
0L
0N
b111111111111 Y
1Z
b1 \
bx d
b1111000 e
b11100 f
b11100 h
b100000 i
1j
b100000 k
1l
b11000 m
b1000100 n
b11111111111111111111111111110110 o
#310000
05
0Z
0j
0l
#315000
1#
b1000100 $
1%
b11111111111111111111111111110110 &
bx ,
15
b11111111111111111111111111110110 9
b100000 :
bx ;
b100000 ?
b10011011110000 K
1L
b1000100 M
1N
b11111111111111111111111111110110 O
b100000 Y
1Z
b10 ]
b1000000 d
b1111100 e
b100000 f
b100000 h
b100100 i
1j
b111111111111 k
1l
b11100 m
#320000
05
0Z
0j
0l
#325000
0!
1"
b11111111111111111111111111110111 ,
15
b1111 7
b100100 :
b11111111111111111111111111110111 ;
b100100 ?
b10011011101111 K
b100100 Y
1Z
b10 \
b1 ]
b1000100 a
b1000100 d
b10000000 e
b100100 f
b100100 h
b101000 i
1j
b100000 k
1l
b100000 m
#330000
05
0Z
0j
0l
#335000
1!
0"
0#
0%
b11111111111111111111111111110110 ,
15
b0 7
b111111111111 :
b11111111111111111111111111110110 ;
b101000 ?
b1010 H
b10011011101110 K
0L
0N
b111111111111 Y
1Z
b1 \
bx d
b10000100 e
b101000 f
b101000 h
b0 i
1j
b100100 k
1l
b100100 m
b1001000 n
b0 o
#340000
05
0Z
0j
0l
#345000
1#
b1001000 $
1%
b0 &
bx ,
15
b0 9
b100100 :
bx ;
b0 ?
b10011011101101 K
1L
b1001000 M
1N
b0 O
b100100 Y
1Z
b10 ]
b1000100 d
b10001000 e
b0 f
b0 h
b100 i
1j
b111111111111 k
1l
b101000 m
#350000
05
0Z
0j
0l
#355000
0!
1"
b11111111111111111111111111110110 ,
15
b1111 7
b101000 :
b11111111111111111111111111110110 ;
b100 ?
b10011011101100 K
b101000 Y
1Z
b10 \
b1 ]
b1001000 a
b1001000 d
b10001100 e
b100 f
b100 h
b1000 i
1j
b100100 k
1l
b0 m
#360000
05
0Z
0j
0l
#365000
1!
0"
0#
0%
0)
b0 ,
15
b0 7
b111111111111 :
b0 ;
b1000 ?
b0 H
b10011011101011 K
0L
0N
0Q
b111111111111 Y
1Z
b1 \
bx d
b10010000 e
b1000 f
b1000 h
b1100 i
1j
b101000 k
1l
b100 m
b100000 p
b0 q
b11111111111111111111111111111111 r
#370000
05
0Z
0j
0l
#375000
1(
1)
b100000 *
bx ,
15
bx ;
b1100 ?
b10011011101010 K
1P
1Q
b100000 R
1Z
b10010100 e
b1100 f
b1100 h
b10000 i
1j
b111111111111 k
1l
b1000 m
#380000
05
0Z
0j
0l
#385000
0'
15
b0 :
b10000 ?
b10011011101001 K
b0 Y
1Z
b100000 b
1c
b100000 d
b10011000 e
b10000 f
b10000 h
b10100 i
1j
1l
b1100 m
#390000
05
0Z
0j
0l
#395000
1+
b0 ,
15
b0 ;
b10100 ?
b10011011101000 K
1S
1Z
b10011100 e
b10100 f
b10100 h
b11000 i
1j
b0 k
1l
b10000 m
#400000
05
0Z
0j
0l
#405000
1'
0)
0+
15
b11000 ?
b1 H
b10011011100111 K
0Q
0S
1Z
0c
b10100000 e
b11000 f
b11000 h
b11100 i
1j
1l
b10100 m
b100100 p
b11111111111111111111111111110110 q
#410000
05
0Z
0j
0l
#415000
1)
b100100 *
15
b11100 ?
b10011011100110 K
1Q
b100100 R
1Z
b10100100 e
b11100 f
b11100 h
b100000 i
1j
1l
b11000 m
#420000
05
0Z
0j
0l
#425000
0'
15
b100 :
b100000 ?
b10011011100101 K
b100 Y
1Z
b100100 b
1c
b100100 d
b10101000 e
b100000 f
b100000 h
b100100 i
1j
1l
b11100 m
#430000
05
0Z
0j
0l
#435000
1+
b11111111111111111111111111110110 ,
15
b11111111111111111111111111110110 ;
b100100 ?
b10011011100100 K
1S
1Z
b10101100 e
b100100 f
b100100 h
b101000 i
1j
b100 k
1l
b100000 m
#440000
05
0Z
0j
0l
#445000
1'
0)
0+
15
b101000 ?
b10 H
b10011011100011 K
0Q
0S
1Z
0c
b10110000 e
b101000 f
b101000 h
b0 i
1j
1l
b100100 m
b101000 p
b11111111111111111111111111110111 q
#450000
05
0Z
0j
0l
#455000
1)
b101000 *
15
b0 ?
b10011011100010 K
1Q
b101000 R
1Z
b10110100 e
b0 f
b0 h
b100 i
1j
1l
b101000 m
#460000
05
0Z
0j
0l
#465000
0'
15
b1000 :
b100 ?
b10011011100001 K
b1000 Y
1Z
b101000 b
1c
b101000 d
b10111000 e
b100 f
b100 h
b1000 i
1j
1l
b0 m
#470000
05
0Z
0j
0l
#475000
1+
b11111111111111111111111111110111 ,
15
b11111111111111111111111111110111 ;
b1000 ?
b10011011100000 K
1S
1Z
b10111100 e
b1000 f
b1000 h
b1100 i
1j
b1000 k
1l
b100 m
#480000
05
0Z
0j
0l
#485000
1'
0)
0+
15
b1100 ?
b11 H
b10011011011111 K
0Q
0S
1Z
0c
b11000000 e
b1100 f
b1100 h
b10000 i
1j
1l
b1000 m
b101100 p
b10111 q
#490000
05
0Z
0j
0l
#495000
1)
b101100 *
15
b10000 ?
b10011011011110 K
1Q
b101100 R
1Z
b11000100 e
b10000 f
b10000 h
b10100 i
1j
1l
b1100 m
#500000
05
0Z
0j
0l
#505000
0'
15
b1100 :
b10100 ?
b10011011011101 K
b1100 Y
1Z
b101100 b
1c
b101100 d
b11001000 e
b10100 f
b10100 h
b11000 i
1j
1l
b10000 m
#510000
05
0Z
0j
0l
#515000
1+
b10111 ,
15
b10111 ;
b11000 ?
b10011011011100 K
1S
1Z
b11001100 e
b11000 f
b11000 h
b11100 i
1j
b1100 k
1l
b10100 m
#520000
05
0Z
0j
0l
#525000
1'
0)
0+
15
b11100 ?
b100 H
b10011011011011 K
0Q
0S
1Z
0c
b11010000 e
b11100 f
b11100 h
b100000 i
1j
1l
b11000 m
b110000 p
b111000 q
#530000
05
0Z
0j
0l
#535000
1)
b110000 *
15
b100000 ?
b10011011011010 K
1Q
b110000 R
1Z
b11010100 e
b100000 f
b100000 h
b100100 i
1j
1l
b11100 m
#540000
05
0Z
0j
0l
#545000
0'
15
b10000 :
b100100 ?
b10011011011001 K
b10000 Y
1Z
b110000 b
1c
b110000 d
b11011000 e
b100100 f
b100100 h
b101000 i
1j
1l
b100000 m
#550000
05
0Z
0j
0l
#555000
1+
b111000 ,
15
b111000 ;
b101000 ?
b10011011011000 K
1S
1Z
b11011100 e
b101000 f
b101000 h
b0 i
1j
b10000 k
1l
b100100 m
#560000
05
0Z
0j
0l
#565000
1'
0)
0+
15
b0 ?
b101 H
b10011011010111 K
0Q
0S
1Z
0c
b11100000 e
b0 f
b0 h
b100 i
1j
1l
b101000 m
b110100 p
b111111 q
#570000
05
0Z
0j
0l
#575000
1)
b110100 *
15
b100 ?
b10011011010110 K
1Q
b110100 R
1Z
b11100100 e
b100 f
b100 h
b1000 i
1j
1l
b0 m
#580000
05
0Z
0j
0l
#585000
0'
15
b10100 :
b1000 ?
b10011011010101 K
b10100 Y
1Z
b110100 b
1c
b110100 d
b11101000 e
b1000 f
b1000 h
b1100 i
1j
1l
b100 m
#590000
05
0Z
0j
0l
#595000
1+
b111111 ,
15
b111111 ;
b1100 ?
b10011011010100 K
1S
1Z
b11101100 e
b1100 f
b1100 h
b10000 i
1j
b10100 k
1l
b1000 m
#600000
05
0Z
0j
0l
#605000
1'
0)
0+
15
b10000 ?
b110 H
b10011011010011 K
0Q
0S
1Z
0c
b11110000 e
b10000 f
b10000 h
b10100 i
1j
1l
b1100 m
b111000 p
b111000 q
#610000
05
0Z
0j
0l
#615000
1)
b111000 *
15
b10100 ?
b10011011010010 K
1Q
b111000 R
1Z
b11110100 e
b10100 f
b10100 h
b11000 i
1j
1l
b10000 m
#620000
05
0Z
0j
0l
#625000
0'
15
b11000 :
b11000 ?
b10011011010001 K
b11000 Y
1Z
b111000 b
1c
b111000 d
b11111000 e
b11000 f
b11000 h
b11100 i
1j
1l
b10100 m
#630000
05
0Z
0j
0l
#635000
1+
b111000 ,
15
b111000 ;
b11100 ?
b10011011010000 K
1S
1Z
b11111100 e
b11100 f
b11100 h
b100000 i
1j
b11000 k
1l
b11000 m
#640000
05
0Z
0j
0l
#645000
1'
0)
0+
15
b100000 ?
b111 H
b10011011001111 K
0Q
0S
1Z
0c
b100000000 e
b100000 f
b100000 h
b100100 i
1j
1l
b11100 m
b111100 p
b10111 q
#650000
05
0Z
0j
0l
#655000
1)
b111100 *
15
b100100 ?
b10011011001110 K
1Q
b111100 R
1Z
b100000100 e
b100100 f
b100100 h
b101000 i
1j
1l
b100000 m
#660000
05
0Z
0j
0l
#665000
0'
15
b11100 :
b101000 ?
b10011011001101 K
b11100 Y
1Z
b111100 b
1c
b111100 d
b100001000 e
b101000 f
b101000 h
b0 i
1j
1l
b100100 m
#670000
05
0Z
0j
0l
#675000
1+
b10111 ,
15
b10111 ;
b0 ?
b10011011001100 K
1S
1Z
b100001100 e
b0 f
b0 h
b100 i
1j
b11100 k
1l
b101000 m
#680000
05
0Z
0j
0l
#685000
1'
0)
0+
15
b100 ?
b1000 H
b10011011001011 K
0Q
0S
1Z
0c
b100010000 e
b100 f
b100 h
b1000 i
1j
1l
b0 m
b1000000 p
b11111111111111111111111111110111 q
#690000
05
0Z
0j
0l
#695000
1)
b1000000 *
15
b1000 ?
b10011011001010 K
1Q
b1000000 R
1Z
b100010100 e
b1000 f
b1000 h
b1100 i
1j
1l
b100 m
#700000
05
0Z
0j
0l
#705000
0'
15
b100000 :
b1100 ?
b10011011001001 K
b100000 Y
1Z
b1000000 b
1c
b1000000 d
b100011000 e
b1100 f
b1100 h
b10000 i
1j
1l
b1000 m
#710000
05
0Z
0j
0l
#715000
1+
b11111111111111111111111111110111 ,
15
b11111111111111111111111111110111 ;
b10000 ?
b10011011001000 K
1S
1Z
b100011100 e
b10000 f
b10000 h
b10100 i
1j
b100000 k
1l
b1100 m
#720000
05
0Z
0j
0l
#725000
1'
0)
0+
15
b10100 ?
b1001 H
b10011011000111 K
0Q
0S
1Z
0c
b100100000 e
b10100 f
b10100 h
b11000 i
1j
1l
b10000 m
b1000100 p
b11111111111111111111111111110110 q
#730000
05
0Z
0j
0l
#735000
1)
b1000100 *
15
b11000 ?
b10011011000110 K
1Q
b1000100 R
1Z
b100100100 e
b11000 f
b11000 h
b11100 i
1j
1l
b10100 m
#740000
05
0Z
0j
0l
#745000
0'
15
b100100 :
b11100 ?
b10011011000101 K
b100100 Y
1Z
b1000100 b
1c
b1000100 d
b100101000 e
b11100 f
b11100 h
b100000 i
1j
1l
b11000 m
#750000
05
0Z
0j
0l
#755000
1+
b11111111111111111111111111110110 ,
15
b11111111111111111111111111110110 ;
b100000 ?
b10011011000100 K
1S
1Z
b100101100 e
b100000 f
b100000 h
b100100 i
1j
b100100 k
1l
b11100 m
#760000
05
0Z
0j
0l
#765000
1'
0)
0+
15
b100100 ?
b1010 H
b10011011000011 K
0Q
0S
1Z
0c
b100110000 e
b100100 f
b100100 h
b101000 i
1j
1l
b100000 m
b1001000 p
b0 q
#770000
05
0Z
0j
0l
#775000
1)
b1001000 *
15
b101000 ?
b10011011000010 K
1Q
b1001000 R
1Z
b100110100 e
b101000 f
b101000 h
b0 i
1j
1l
b100100 m
#780000
05
0Z
0j
0l
#785000
0'
15
b101000 :
b0 ?
b10011011000001 K
b101000 Y
1Z
b1001000 b
1c
b1001000 d
b100111000 e
b0 f
b0 h
b100 i
1j
1l
b101000 m
#790000
05
0Z
0j
0l
#795000
1+
b0 ,
15
b0 ;
b100 ?
b10011011000000 K
1S
1Z
b100111100 e
b100 f
b100 h
b1000 i
1j
b101000 k
1l
b0 m
#800000
05
0Z
0j
0l
#805000
1'
0)
0+
15
b1000 ?
b1011 H
b10011010111111 K
0Q
0S
1Z
0c
b101000000 e
b1000 f
b1000 h
b1100 i
1j
1l
b100 m
#810000
05
0Z
0j
0l
#815000
15
b1100 ?
b10011010111110 K
1Z
b101000100 e
b1100 f
b1100 h
b10000 i
1j
1l
b1000 m
b0 n
b1 o
#820000
05
0Z
0j
0l
#825000
1#
b0 $
1%
b1 &
15
b1 9
b10000 ?
b10011010111101 K
1L
b0 M
1N
b1 O
1Z
b10 ]
b101001000 e
b10000 f
b10000 h
b10100 i
1j
1l
b1100 m
#830000
05
0Z
0j
0l
#835000
0!
1"
b100 ,
15
b0 7
b111111111111 :
b10100 ?
b10011010111100 K
b111111111111 Y
1Z
b10 \
b11 ]
b0 a
b0 d
b101001100 e
b10100 f
b10100 h
b11000 i
1j
1l
b10000 m
#840000
05
0Z
0j
0l
#845000
0"
0#
0%
b1 ,
10
15
b101000 :
bx ;
b1 >
b0 ?
b10011010111011 K
0L
0N
b101000 Y
1Z
b11 \
b100 ]
b1 _
b1001000 d
b1001000 e
b0 f
b0 h
b100 i
1j
b111111111111 k
1l
b10100 m
#850000
05
0Z
0j
0l
#855000
b0 ,
b10 .
00
15
b0 :
b0 ;
b0 <
b0 >
b100 ?
b1 @
b1 G
b10011010111010 K
b10 U
b0 Y
1Z
b100 \
b100 ]
b0 _
b100000 d
b100000 e
b100 f
b100 g
b100 h
b1000 i
1j
b101000 k
1l
b0 m
b10 s
#860000
05
0Z
0j
0l
#865000
15
b100 :
b1000 ?
b0 @
b10011010111001 K
b100 Y
1Z
b100100 d
b100100 e
b1000 g
b1000 h
b1100 i
1j
b0 k
1l
b100 m
#870000
05
0Z
0j
0l
#875000
15
b1000 :
b11111111111111111111111111110110 ;
b1100 ?
b10011010111000 K
b1000 Y
1Z
b101000 d
b101000 e
b1100 g
b1100 h
b10000 i
1j
b100 k
1l
b1000 m
#880000
05
0Z
0j
0l
#885000
15
b1100 :
b11111111111111111111111111110111 ;
b10000 ?
b10011010110111 K
b1100 Y
1Z
b101100 d
b101100 e
b10000 g
b10000 h
b10100 i
1j
b1000 k
1l
b1100 m
#890000
05
0Z
0j
0l
#895000
15
b10000 :
b10111 ;
b10100 ?
b10011010110110 K
b10000 Y
1Z
b110000 d
b110000 e
b10100 g
b10100 h
b11000 i
1j
b1100 k
1l
b10000 m
#900000
05
0Z
0j
0l
#905000
15
b10100 :
b111000 ;
b11000 ?
b10011010110101 K
b10100 Y
1Z
b110100 d
b110100 e
b11000 g
b11000 h
b11100 i
1j
b10000 k
1l
b10100 m
#910000
05
0Z
0j
0l
#915000
15
b11000 :
b111111 ;
b11100 ?
b10011010110100 K
b11000 Y
1Z
b111000 d
b111000 e
b11100 g
b11100 h
b100000 i
1j
b10100 k
1l
b11000 m
#920000
05
0Z
0j
0l
#925000
15
b11100 :
b111000 ;
b100000 ?
b10011010110011 K
b11100 Y
1Z
b111100 d
b111100 e
b100000 g
b100000 h
b100100 i
1j
b11000 k
1l
b11100 m
#930000
05
0Z
0j
0l
#935000
15
b100000 :
b10111 ;
b100100 ?
b10011010110010 K
b100000 Y
1Z
b1000000 d
b1000000 e
b100100 g
b100100 h
b101000 i
1j
b11100 k
1l
b100000 m
#940000
05
0Z
0j
0l
